…
CHAPTER 9 ■ OTHER TOOLS FOR DATA MANAGEMENT
160
 iris$Species <- as.character(iris$Species) 
 diris <- as_tibble(iris) 
 diris 
 # A tibble: 150 x 5 
  Sepal.Length Sepal.Width Petal.Length Petal.Width Species 
         <dbl>       <dbl>        <dbl>       <dbl>   <chr> 
 1          5.1         3.5          1.4         0.2  setosa 
 2          4.9         3.0          1.4         0.2  setosa 
 3          4.7         3.2          1.3         0.2  setosa 
 4          4.6         3.1          1.5         0.2  setosa 
 5          5.0         3.6          1.4         0.2  setosa 
 # ... with 145 more rows 
 For  data.table , we use  sapply() to get a vector of classes for each column or variable. Although we 
could do the same with tibbles, tibbles automatically provide information about the types or classes of data 
in each column as well as total number of columns and rows (for example,  <dbl> indicating a double or 
numeric value, with  <chr> indicating character class data). We turn our attention to the common goals of 
working with data: sorting, subsetting, ordering, computing, and reshaping. A helpful way to think of  dplyr 
is that it uses verbs to describe actions on the data. 
 Sorting 
 We sort in  dplyr by the  arrange() function , which takes a data set as its first argument. Additional 
arguments after the first argument provide sorting by those other columns. The default is an increasing 
order, and this is modified with a second function call of  desc() to provide  desc ending order. 
 diris <- arrange(diris, Sepal.Length) 
 diris 
 # A tibble: 150 x 5 
  Sepal.Length Sepal.Width Petal.Length Petal.Width Species 
         <dbl>       <dbl>        <dbl>       <dbl>   <chr> 
 1          4.3         3.0          1.1         0.1  setosa 
 2          4.4         2.9          1.4         0.2  setosa 
 3          4.4         3.0          1.3         0.2  setosa 
 4          4.4         3.2          1.3         0.2  setosa 
 5          4.5         2.3          1.3         0.3  setosa 
 # ... with 145 more rows 
 diris <- arrange(diris, Sepal.Length, desc(Sepal.Width)) 
 diris 
 # A tibble: 150 x 5 
  Sepal.Length Sepal.Width Petal.Length Petal.Width Species 
         <dbl>       <dbl>        <dbl>       <dbl>   <chr> 
 1          4.3         3.0          1.1         0.1  setosa 
 2          4.4         3.2          1.3         0.2  setosa 
 3          4.4         3.0          1.3         0.2  setosa 
 4          4.4         2.9          1.4         0.2  setosa 
 5          4.5         2.3          1.3         0.3  setosa 
 # ... with 145 more rows 
…
 Whereas  anyDuplicated()  returns the row index of the first duplication,  duplicated  simply tells us how 
many such duplications occur in our table. Looking at our code, we see that for a full match in all columns, 
row  79 is the only time that occurs. On the other hand, duplicated sepal lengths may happen for the first time 
in row  3 , but there are many more duplicates. 
 table(duplicated(diris)) 
 FALSE  TRUE  
  149     1  
 table(duplicated(diris$Sepal.Length)) 
 FALSE  TRUE  
   35   115 
  If we want to see table results with only distinct values,  distinct() works much like  arrange() . The 
first formal is for data, while the rest specify column name variables. If no column names are specified, 
 distinct() operates on all columns. Recall from the  duplicated()  call that there are  149 unique rows. 
 distinct(diris) 
 # A tibble: 149 x 5 
  Sepal.Length Sepal.Width Petal.Length Petal.Width Species 
         <dbl>       <dbl>        <dbl>       <dbl>   <chr> 
 1          4.3         3.0          1.1         0.1  setosa 
 2          4.4         3.2          1.3         0.2  setosa 
 3          4.4         3.0          1.3         0.2  setosa 
 4          4.4         2.9          1.4         0.2  setosa 
 5          4.5         2.3          1.3         0.3  setosa 
 # ... with 144 more rows 
  Similarly, recall that there are only  35 unique rows if we consider only sepal length. Consequently, using 
the second formal of  distinct() to hold the  Sepal.Length  column yields only  35 rows in our  tibble . We 
show the first five of those rows here: 
 distinct(diris, Sepal.Length) 
 # A tibble: 35 x 1 
  Sepal.Length 
         <dbl> 
 1          4.3 
 2          4.4 
 3          4.5 
 4          4.6 
 5          4.7 
 # ... with 30 more rows 

CHAPTER 9 ■ OTHER TOOLS FOR DATA MANAGEMENT
162
 This section closes with one last call to  distinct() , showing more than one column called in the 
second and third formal arguments. Here, a row is unique provided both  Sepal.Length and  Sepal.Width do 
not duplicate. Pay special attention to rows  2 through  4 , which have the same   Sepal.Length , yet those rows 
are not duplicated because their  Sepal.Widths are different: 
 distinct(diris, Sepal.Length, Sepal.Width) 
 # A tibble: 117 x 2 
  Sepal.Length Sepal.Width 
         <dbl>       <dbl> 
 1          4.3         3.0 
 2          4.4         3.2 
 3          4.4         3.0 
 4          4.4         2.9 
 5          4.5         2.3 
 # ... with 112 more rows  
…
CHAPTER 9 ■ OTHER TOOLS FOR DATA MANAGEMENT
163
 Rather than select rows directly, we may set logical conditions on them. Again, these types of arguments 
belong in the second formal of our function call. However, in this case, we use  filter() rather than 
 slice(). The  filter() function uses logical indexing. It is easy enough to select either all the rows in which 
 Species either is (or is not)  setosa by writing a logical test: 
 filter(diris, Species == "setosa") 
 # A tibble: 50 x 5 
  Sepal.Length Sepal.Width Petal.Length Petal.Width Species 
         <dbl>       <dbl>        <dbl>       <dbl>   <chr> 
 1          4.3         3.0          1.1         0.1  setosa 
 2          4.4         3.2          1.3         0.2  setosa 
 3          4.4         3.0          1.3         0.2  setosa 
 4          4.4         2.9          1.4         0.2  setosa 
 5          4.5         2.3          1.3         0.3  setosa 
 # ... with 45 more rows 
 filter(diris, Species != "setosa") 
 # A tibble: 100 x 5 
  Sepal.Length Sepal.Width Petal.Length Petal.Width    Species 
         <dbl>       <dbl>        <dbl>       <dbl>      <chr> 
 1          4.9         2.5          4.5         1.7  virginica 
 2          4.9         2.4          3.3         1.0 versicolor 
 3          5.0         2.3          3.3         1.0 versicolor 
 4          5.0         2.0          3.5         1.0 versicolor 
 5          5.1         2.5          3.0         1.1 versicolor 
 # ... with 95 more rows 
 It is also possible to select  rows based on numeric values with inequalities, equality, or nonequality in 
addition to logical indexes. Both numeric and character tests may be mixed and matched to extract precisely 
the rows desired: 
 filter(iris, Sepal.Length < 5 & Petal.Width > .2) 
  Sepal.Length Sepal.Width Petal.Length Petal.Width    Species 
 1          4.6         3.4          1.4         0.3     setosa 
 2          4.5         2.3          1.3         0.3     setosa 
 3          4.8         3.0          1.4         0.3     setosa 
 4          4.9         2.4          3.3         1.0 versicolor 
 5          4.9         2.5          4.5         1.7  virginica 
 filter(diris, Sepal.Length == 4.3 | Sepal.Width != 4.4) 
 # A tibble: 149 x 5 
  Sepal.Length Sepal.Width Petal.Length Petal.Width Species 
         <dbl>       <dbl>        <dbl>       <dbl>   <chr> 
 1          4.3         3.0          1.1         0.1  setosa 
 2          4.4         3.2          1.3         0.2  setosa 
 3          4.4         3.0          1.3         0.2  setosa 
 4          4.4         2.9          1.4         0.2  setosa 
 5          4.5         2.3          1.3         0.3  setosa 
 # ... with 144 more rows 
…
 If we seek multiple matches, the  %in% operator may be used along with a list of interest to us. This allows 
us to separate the coding that indicates our choice of interest, and then filter based on that interest: 
 interest <- c(4.3, 4.4) 
 filter(diris, Sepal.Length %in% interest) 
 # A tibble: 4 x 5 
  Sepal.Length Sepal.Width Petal.Length Petal.Width Species 
         <dbl>       <dbl>        <dbl>       <dbl>   <chr> 
 1          4.3         3.0          1.1         0.1  setosa 
 2          4.4         3.2          1.3         0.2  setosa 
 3          4.4         3.0          1.3         0.2  setosa 
 4          4.4         2.9          1.4         0.2  setosa 
 Alternately, if we wish to exclude any rows that have a certain characteristic, that may be done via 
negation. This is useful to remove outliers or erroneous data points: 
 filter(diris, !Sepal.Length %in% interest) 
 # A tibble: 146 x 5 
  Sepal.Length Sepal.Width Petal.Length Petal.Width Species 
         <dbl>       <dbl>        <dbl>       <dbl>   <chr> 
 1          4.5         2.3          1.3         0.3  setosa 
 2          4.6         3.6          1.0         0.2  setosa 
 3          4.6         3.4          1.4         0.3  setosa 
 4          4.6         3.2          1.4         0.2  setosa 
 5          4.6         3.1          1.5         0.2  setosa 
 # ... with 141 more rows 
…
to  & . 
 filter(diris, 
       Sepal.Length == 4.3 | Sepal.Length == 4.4, 
       Petal.Width < .2) 
 # A tibble: 1 x 5 
  Sepal.Length Sepal.Width Petal.Length Petal.Width Species 
         <dbl>       <dbl>        <dbl>       <dbl>   <chr> 
 1          4.3           3          1.1         0.1  setosa 
 So far, we’ve selected rows from all columns. If we wish to select only specific columns, the  select() 
function   takes a database as its first formal, and column information in the rest of the formals. For named 
columns in your table data structure, selecting one or more columns is as simple as listing the column 
names. It is also possible to select by position. Contrast these named versus position column arguments and 
also recognize that both can make the column selections in any order needed: 
 select(diris, Sepal.Length, Sepal.Width) 
 # A tibble: 150 x 2 
  Sepal.Length Sepal.Width 
         <dbl>       <dbl> 
 1          4.3         3.0 
 2          4.4         3.2 

CHAPTER 9 ■ OTHER TOOLS FOR DATA MANAGEMENT
165
 3          4.4         3.0 
 4          4.4         2.9 
 5          4.5         2.3 
 # ... with 145 more rows 
 select(diris, 1, 5, 2) 
 # A tibble: 150 x 3 
  Sepal.Length Species Sepal.Width 
         <dbl>   <chr>       <dbl> 
 1          4.3  setosa         3.0 
 2          4.4  setosa         3.2 
 3          4.4  setosa         3.0 
 4          4.4  setosa         2.9 
 5          4.5  setosa         2.3 
 # ... with 145 more rows 
 So far, specific columns are directly named. What if the columns need to be variable depending on the 
program or the user’s needs? In that case, character string references are desirable, as strings easily convert 
to variables. We show both a direct call to  select_() and the use of a variable  v  to achieve the same results. 
Be sure to notice the underscore added to the name of the function! When using  select _() , multiple 
variable names as strings can be passed as separate arguments. 
 select_(diris, "Sepal.Length", "Sepal.Width") 
 # A tibble: 150 × 2 
  Sepal.Length Sepal.Width 
         <dbl>       <dbl> 
 1          5.1         3.5 
 2          4.9         3.0 
 3          4.7         3.2 
 4          4.6         3.1 
 5          5.0         3.6 
 # ... with 145 more rows 
 Our variable,  v , could contain more than one column name. However, if used in the  default   way, only 
the first variable from the list will be returned. To get all the variables to be returned, when passing an object 
holding a vector of variable names, it should be passed to the  .dots formal argument, shown in the second 
example that follows: 
 v <- c("Sepal.Length", "Sepal.Width") 
 select_(diris, v) 
 # A tibble: 150 x 1 
  Sepal.Length 
         <dbl> 
 1          4.3 
 2          4.4 
 3          4.4 
 4          4.4 
 5          4.5 
 # ... with 145 more rows 

CHAPTER 9 ■ OTHER TOOLS FOR DATA MANAGEMENT
166
 select_(diris, .dots = v) 
 # A tibble: 150 × 2 
  Sepal.Length Sepal.Width 
         <dbl>       <dbl> 
 1          5.1         3.5 
 2          4.9         3.0 
 3          4.7         3.2 
 4          4.6         3.1 
 5          5.0         3.6 
 # ... with 145 more rows 
 Another way of achieving the same result with our original  select() function is by using one of the 
select helper functions. There are seven of these helper functions, and the one we presently want is  one_
of() , which manages character vectors: 
 select(diris, one_of(v)) 
 # A tibble: 150 x 1 
  Sepal.Length 
         <dbl> 
 1          4.3 
 2          4.4 
 3          4.4 
 4          4.4 
 5          4.5 
 # ... with 145 more rows 
 When using the  dplyr data structure  tibble , approaches like those used in data tables work. These are 
not guaranteed to translate as smoothly throughout the  dplyr experience. It seems best to engage  dplyr in 
its native language. However, the next two function calls are given for completeness: 
 diris[, v] 
 # A tibble: 150 x 1 
  Sepal.Length 
         <dbl> 
 1          4.3 
 2          4.4 
 3          4.4 
 4          4.4 
 5          4.5 
 # ... with 145 more rows 
 diris[, 1] 
 # A tibble: 150 x 1 
  Sepal.Length 
         <dbl> 
 1          4.3 
 2          4.4 
 3          4.4 
 4          4.4 
 5          4.5 
 # ... with 145 more rows 
…
techniques. If we know the column name containing the data we want, it is easy to type the name directly. 
If our column may be variable, we reuse our variable  v for the third method. Regardless of the method, the 
console prints the same data. Notice that these data are vectors, not data table structures. We marked the 
code to access the column data as a vector in bold only for emphasis. 
 head(diris[["Sepal.Length"]]) 
 [1] 4.3 4.4 4.4 4.4 4.5 4.6 
 head(diris$Sepal.Length)       # easy to type 
 [1] 4.3 4.4 4.4 4.4 4.5 4.6 
 head(diris[[v]])               # easy if you have a R variable 
 [1] 4.3 4.4 4.4 4.4 4.5 4.6 
 Excluding a column or columns may be of more interest than selecting certain columns. Exclusion uses 
negation in several formats. Particularly, either the column(s) to be excluded may be named or referenced 
via position: 
 select(diris, -1) 
 # A tibble: 150 x 4 
  Sepal.Width Petal.Length Petal.Width Species 
        <dbl>        <dbl>       <dbl>   <chr> 
 1         3.0          1.1         0.1  setosa 
 2         3.2          1.3         0.2  setosa 
 3         3.0          1.3         0.2  setosa 
 4         2.9          1.4         0.2  setosa 
 5         2.3          1.3         0.3  setosa 
 # ... with 145 more rows 
 select(diris, -Sepal.Length, -Petal.Width) 
 # A tibble: 150 x 3 
  Sepal.Width Petal.Length Species 
        <dbl>        <dbl>   <chr> 
 1         3.0          1.1  setosa 
 2         3.2          1.3  setosa 
 3         3.0          1.3  setosa 
 4         2.9          1.4  setosa 
 5         2.3          1.3  setosa 
 # ... with 145 more rows 
  Again, when variable exclusion is needed, we set a  variable   to hold the vector, and we may paste 
negation to the front of that by using  paste0() and then using the  select_() call to use character strings. 
Alternately, we may use negation with the select helper function  one_of()  in our usual  select() function. 
Either way, we get the same results: 
 ex <- paste0("-", v) 
 select_(diris, ex) 
 # A tibble: 150 x 4 
  Sepal.Width Petal.Length Petal.Width Species 
        <dbl>        <dbl>       <dbl>   <chr> 
 1         3.0          1.1         0.1  setosa 
 2         3.2          1.3         0.2  setosa 
 3         3.0          1.3         0.2  setosa 

CHAPTER 9 ■ OTHER TOOLS FOR DATA MANAGEMENT
168
 4         2.9          1.4         0.2  setosa 
 5         2.3          1.3         0.3  setosa 
 # ... with 145 more rows 
 select(diris, -one_of(v)) 
 # A tibble: 150 x 4 
  Sepal.Width Petal.Length Petal.Width Species 
        <dbl>        <dbl>       <dbl>   <chr> 
 1         3.0          1.1         0.1  setosa 
 2         3.2          1.3         0.2  setosa 
 3         3.0          1.3         0.2  setosa 
 4         2.9          1.4         0.2  setosa 
 5         2.3          1.3         0.3  setosa 
 # ... with 145 more rows 
 Having now used this select convenience function a couple of times, we look briefly at four more of 
these. The goal of these four is that they help us choose variables without typing out an entire column 
name. In no particular order,  starts_with(), ends_with(), contains(), and matches() all use regular 
expressions, default to looking in the current variable list, and ignore letter case by default, although this is a 
feature that may be turned off. Rather than demonstrate all of these, the following code shows two examples 
using  starts_with() . One benefit of the  dplyr approach of making focused functions named after verbs 
that accomplish one specific task is that it is easy to tell what a function does from its name. The remaining 
helper functions operate similarly to  starts_with() and do exactly what their names indicate: 
 select(diris, starts_with("s")) 
 # A tibble: 150 x 3 
  Sepal.Length Sepal.Width Species 
         <dbl>       <dbl>   <chr> 
 1          4.3         3.0  setosa 
 2          4.4         3.2  setosa 
 3          4.4         3.0  setosa 
 4          4.4         2.9  setosa 
 5          4.5         2.3  setosa 
 # ... with 145 more rows 
…
 [1] "Sepal.Length" "Sepal.Width"  "Petal.Length" "Petal.Width"  "Species"   
  To change a name, call the  rename() function on the data object and set the new name in the second 
formal by using the following format:  new name = old name . Multiple columns can be renamed at once by 
passing them as additional arguments (for example, in the third, fourth formal). Confirm that the change 
took place by comparing the results of  name() with the old results. In the following code, we remove the full 
stop between  Sepal and  Length in our data: 
 diris <- rename(diris, SepalLength = Sepal.Length) 
 names(diris) 
 [1] "SepalLength"  "Sepal.Width"  "Petal.Length" "Petal.Width"  "Species" 
  To reorder the columns to pair the lengths and the widths together, simply use the  select() function 
and reassign a name to your data object. Be sure to remember that we renamed   SepalLength to no longer 
have a full stop in the middle! 
 diris <- select(diris, SepalLength, Petal.Length, Sepal.Width, Petal.Width, Species) 
 diris 
 # A tibble: 150 x 5 
  SepalLength Petal.Length Sepal.Width Petal.Width Species 
        <dbl>        <dbl>       <dbl>       <dbl>   <chr> 
 1         4.3          1.1         3.0         0.1  setosa 
 2         4.4          1.3         3.2         0.2  setosa 
 3         4.4          1.3         3.0         0.2  setosa 
 4         4.4          1.4         2.9         0.2  setosa 
 5         4.5          1.3         2.3         0.3  setosa 
 # ... with 145 more rows 
 Earlier, you saw that numeric select calls could reorder columns, so we close out this section with one 
last reordering example. Here, we use a variable to hold numeric positions, although we could just as well 
use character names in place of numbers. Then we use the  select_()  function  to reorganize our columns 
back to their original order. 
 v <- c(1, 3, 2, 4, 5) 
 diris <- select_(diris, .dots = as.list(v)) 
 diris 
 # A tibble: 150 x 5 
  SepalLength Sepal.Width Petal.Length Petal.Width Species 
        <dbl>       <dbl>        <dbl>       <dbl>   <chr> 
 1         4.3         3.0          1.1         0.1  setosa 
 2         4.4         3.2          1.3         0.2  setosa 
 3         4.4         3.0          1.3         0.2  setosa 
 4         4.4         2.9          1.4         0.2  setosa 
 5         4.5         2.3          1.3         0.3  setosa 
 # ... with 145 more rows 
…
