…
• select() selects variables based on their names.
We could use
mpg %>% select(manufacturer, model, cty, hwy)
## # A tibble: 234 x 4
##
manufacturer model
cty
hwy
##
<chr>
<chr> <int> <int>
## 1 audi
a4
18
29
## 2 audi
a4
21
29
## 3 audi
a4
20
31
## # ... with 231 more rows
if we were only interested in those four columns. We can rename columns
as we select them, e.g.
mpg %>% select(manufacturer, model, City = cty, Highway = hwy)
## # A tibble: 234 x 4
##
manufacturer model
City Highway
##
<chr>
<chr> <int>
<int>
## 1 audi
a4
18
29
## 2 audi
a4
21
29
## 3 audi
a4
20
31
## # ... with 231 more rows
…
