…
214
CHAPTER 9
Getting data from a data frame
 We are now ready to create our desired data frame in the next listing. We’ll call it good.
julia> good = puzzles[row_selector, ["Rating", "Popularity"]]
513357×2 DataFrame
    Row │ Rating  Popularity 
        │ Int64   Int64      
────────┼────────────────────
      1 │   1765          93
      2 │   1525          97
      3 │   1560          88
   :    │   :         :
 513356 │   2069          92
 513357 │   1783          90
          513352 rows omitted
…
row1 object:
julia> row1["Rating"]
1765
julia> row1[:Rating]
1765
julia> row1[1]
1765
julia> row1.Rating
1765
julia> row1."Rating"
1765
On the other hand, if you select multiple rows and multiple columns, you get a Data-
Frame. You have already seen this kind of selection in listing 9.1:
julia> good = puzzles[row_selector, ["Rating", "Popularity"]]
513357×2 DataFrame
    Row │ Rating  Popularity 
        │ Int64   Int64      
────────┼────────────────────
      1 │   1765          93
      2 │   1525          97
      3 │   1560          88
   :    │   :         :
 513356 │   2069          92
 513357 │   1783          90
          513352 rows omitted
…
227
9.2
Analyzing the relationship between puzzle difficulty and popularity
julia> good[rating_mapping[2108], :]
457×2 DataFrame
 Row │ Rating  Popularity 
     │ Int64   Int64
─────┼────────────────────
   1 │   2108          95
   2 │   2108          90
   3 │   2108          90
  :  │   :         :
 456 │   2108          91
 457 │   2108          92
          452 rows omitted
…
using the span keyword argument in the Loess.loess function; see https://
github.com/JuliaStats/Loess.jl).
A more careful analysis could have taken all these factors into account, but I decided
to omit such analysis to keep the example simple and concentrate on the topic of
indexing that we cover in this chapter.
EXERCISE 9.3
Check the consequences of changing the value of the span
keyword argument in the loess function. By default, this argument has the
value 0.75. Set it to 0.25 and add another prediction line to the plot presented
in figure 9.4. Make the line yellow with its width equal to 5.
As a last example in this chapter, as promised previously, let’s see how we could have
used more advanced features of DataFrames.jl to aggregate the data for our analysis to
get popularity means by rating:
julia> combine(groupby(good, :Rating), :Popularity => mean)
1157×2 DataFrame
  Row │ Rating  Popularity_mean 
      │ Int64   Float64
──────┼─────────────────────────
    1 │   1501          91.3822
    2 │   1502          91.8164
    3 │   1503          91.6671
  :   │   :            :
 1156 │   2656          89.6162
 1157 │   2657          89.398
               1152 rows omitted
…
   2 │     8.0     5.76
   3 │     8.0     7.71
   4 │     8.0     8.84
   5 │     8.0     8.47
   6 │     8.0     7.04
   7 │     8.0     5.25
   8 │    19.0    12.5
   9 │     8.0     5.56
  10 │     8.0     7.91
  11 │     8.0     6.89)
We create the data_dfs NamedTuple by storing four data frames corresponding to
four data sets in the data object. We would now like to vertically concatenate (stack)
these data frames. You can do this in Julia by using the vcat function:
julia> vcat(data_dfs.set1, data_dfs.set2, data_dfs.set3, data_dfs.set4)
44×2 DataFrame
 Row │ x        y       
     │ Float64  Float64
─────┼──────────────────
   1 │    10.0     8.04
   2 │     8.0     6.95
   3 │    13.0     7.58
  :  │    :        :
  42 │     8.0     5.56
  43 │     8.0     7.91
  44 │     8.0     6.89
         38 rows omitted
The result of the operation is a single data frame with the source data frames stacked
one over the other. The only problem is that we do not see which rows come from
which source data frame. You can fix this by passing the source keyword argument to
vcat. If you pass a column name as source, this column will store the number of the
data frame from which a given row originates:
julia> vcat(data_dfs.set1, data_dfs.set2, data_dfs.set3, data_dfs.set4;
            source="source_id")
44×3 DataFrame
 Row │ x        y        source_id 
     │ Float64  Float64  Int64     
─────┼─────────────────────────────
   1 │    10.0     8.04          1
   2 │     8.0     6.95          1
   3 │    13.0     7.58          1
  :  │    :        :         :
  42 │     8.0     5.56          4
  43 │     8.0     7.91          4
  44 │     8.0     6.89          4
                    38 rows omitted

251
10.2
Creating data frames incrementally
After the operation, the source_id column contains numbers from 1 to 4 showing
from which source data frame a given row was taken. If you would like to use custom
names for source data frames, pass as a source keyword argument a Pair holding
the source column name and the identifiers assigned to passed data frames. Here is
an example:
julia> vcat(data_dfs.set1, data_dfs.set2, data_dfs.set3, data_dfs.set4;
            source="source_id"=>string.("set", 1:4))
44×3 DataFrame
 Row │ x        y        source_id 
     │ Float64  Float64  String    
─────┼─────────────────────────────
   1 │    10.0     8.04  set1
   2 │     8.0     6.95  set1
   3 │    13.0     7.58  set1
  :  │    :        :         :
  42 │     8.0     5.56  set4
  43 │     8.0     7.91  set4
  44 │     8.0     6.89  set4
                    38 rows omitted
If you have a lot of data frames stored in a vector, listing them one by one in the vcat
call might be inconvenient. We can use the reduce function, passing it a vcat as a
first argument followed by a vector of data frames, and, if needed, appropriate key-
word arguments. In this case, we can turn the data_dfs NamedTuple into a vector of
data frame objects by using the collect function so we can use this pattern. Here is
an example:
julia> reduce(vcat, collect(data_dfs);
              source="source_id"=>string.("set", 1:4))
44×3 DataFrame
 Row │ x        y        source_id 
     │ Float64  Float64  String    
─────┼─────────────────────────────
   1 │    10.0     8.04  set1
   2 │     8.0     6.95  set1
   3 │    13.0     7.58  set1
  :  │    :        :         :
  42 │     8.0     5.56  set4
  43 │     8.0     7.91  set4
  44 │     8.0     6.89  set4
                    38 rows omitted
…
 Row │ id     name             ml_target 
     │ Int64  String31         Int64
─────┼───────────────────────────────────
   1 │  1358  StefanKarpinski          1
This time, the check succeeds. Note that the id of StefanKarpinski is 1358, but it is
row number 1359 in our data frame. Let’s fix this off-by-one issue.
USING BROADCASTING TO UPDATE THE CONTENTS OF DATA FRAMES
An important feature we learn from listing 12.3 is that the developer’s identifier (col-
umns id_1 and id_2 in edges_df and column id in classes_df) starts indexing
with 0. Let’s increase all the indices by 1 so that they start from 1. This is needed
because in section 12.2, we will use these edges to create a graph with the Graphs.jl
package, and in this package, nodes in a graph use 1-based indexing, just like stan-
dard arrays in Julia. We accomplish the update by using broadcasting:
julia> edges_df .+= 1
289003×2 DataFrame

300
CHAPTER 12
Mutating and transforming data frames
    Row │ id_1   id_2  
        │ Int64  Int64 
────────┼──────────────
      1 │     1  23978
      2 │     2  34527
      3 │     2   2371
   :    │   :      :
 289001 │ 37645   2348
 289002 │ 25880   2348
 289003 │ 25617   2348
    288997 rows omitted
…
bors, so points representing that data overlap.
We will solve these problems by using the following techniques:
Plot data aggregated by the combination of the number of web and machine
learning neighbors of a developer. In this way, we will have a single point on the
plot for a single combination of these values.
Manually change the axis of the plots to be in logarithmic scale. In this way, we
will visually decompress the low-degree part of the plot.
Add jitter (random noise) to the displayed data to further reduce the problems
caused by many points on the plot.
We’ll start with aggregation of the data. We want to have a data frame that, for each
unique combination of values stored in the deg_ml and deg_web columns, gives us
information about a fraction of web developers:
julia> agg_df = combine(groupby(classes_df, [:deg_ml, :deg_web]),
                        :ml_target => (x -> 1 - mean(x)) => :web_mean)
2103×3 DataFrame
  Row │ deg_ml  deg_web  web_mean 
      │ Int64   Int64    Float64
──────┼───────────────────────────
    1 │      0        1  0.755143
    2 │      0        8  0.952104
    3 │      3        2  0.148148
  :   │   :        :        :
 2101 │     41       14  0.0
 2102 │    101       18  0.0
 2103 │      2      213  1.0
                 2097 rows omitted
…
317
12.3
Using the split-apply-combine approach to predict the developer’s type
 Before we move forward, take a look at the DataFramesMeta.jl syntax for the same
operation:
julia> @combine(groupby(classes_df, [:deg_ml, :deg_web]),
                :web_mean = 1 - mean(:ml_target))
2103×3 DataFrame
  Row │ deg_ml  deg_web  web_mean 
      │ Int64   Int64    Float64  
──────┼───────────────────────────
    1 │      0        1  0.755143
    2 │      0        8  0.952104
    3 │      3        2  0.148148
  :   │   :        :        :
 2101 │     41       14  0.0
 2102 │    101       18  0.0
 2103 │      2      213  1.0
                 2097 rows omitted
…
julia> agg_violation = @chain owensboro begin
           select(:violation =>
                  ByRow(x -> strip.(split(x, ";"))) =>
                  :v)                        
           flatten(:v)                      
           select(:v =>
                  ByRow(x -> contains(x, "SPEEDING") ? "SPEEDING" : x) =>
                  :v)                       
           groupby(:v)
           combine(nrow => :count)          
           sort(:count, rev=true)            
       end
245×2 DataFrame
 Row │ v                                  count 
     │ Abstract…                          Int64 
─────┼──────────────────────────────────────────
   1 │ FAILURE TO WEAR SEAT BELTS          2689
   2 │ NO REGISTRATION PLATES              1667
   3 │ FAILURE TO PRODUCE INSURANCE CARD   1324
   4 │ SPEEDING                            1067
  :  │                  :                    :
 242 │ IMPROPER USE OF RED LIGHTS             1
 243 │ DISPLAY OF ILLEGAL/ALTERED REGIS…      1
 244 │ TRAFF IN CONT SUB, 2ND DEGREE, 1…      1
 245 │ UUTHORIZED USE OF MOTOR VEHICLE-…      1
                                237 rows omitted
…
346
CHAPTER 13
Advanced transformations of data frames
 
julia> owensboro2 = select(owensboro,
           :arrest_made => :arrest,                       
           :date => ByRow(dayofweek) => :day,           
           :type,                                  
           [:violation =>                                 
            ByRow(x -> contains(x, agg_violation.v[i])) => 
            "v$i" for i in 1:4]) 
6921×7 DataFrame
  Row │ arrest  day    type        v1     v2     v3     v4    
      │ Bool    Int64  String15?   Bool   Bool   Bool   Bool
──────┼───────────────────────────────────────────────────────
    1 │   true      4  pedestrian  false  false  false  false
    2 │  false      7  vehicular   false   true  false  false
    3 │   true      7  vehicular   false  false  false  false
    4 │   true      2  vehicular   false  false  false  false
  :   │   :       :        :         :      :      :      :
 6918 │  false      3  vehicular   false  false  false   true
 6919 │  false      3  vehicular    true   true  false   true
 6920 │  false      3  vehicular   false  false  false   true
 6921 │  false      3  vehicular   false  false  false  false
                                             6913 rows omitted
…
350
CHAPTER 13
Advanced transformations of data frames
have put into it in listing 13.6 (that is, arrest, day, type, v1, v2, v3, and v4) and
additionally has the dayname column added from the joined weekdays data frame:
julia> leftjoin!(owensboro2, weekdays; on=:day)
6921×8 DataFrame
  Row │ arrest  day    type        v1     v2     v3     v4     dayname
      │ Bool    Int64  String15?   Bool   Bool   Bool   Bool   Cat…?
──────┼──────────────────────────────────────────────────────────────────
    1 │   true      4  pedestrian  false  false  false  false  Thursday
    2 │  false      7  vehicular   false   true  false  false  Sunday
    3 │   true      7  vehicular   false  false  false  false  Sunday
    4 │   true      2  vehicular   false  false  false  false  Tuesday
  :   │   :       :        :         :      :      :      :        :
 6918 │  false      3  vehicular   false  false  false   true  Wednesday
 6919 │  false      3  vehicular    true   true  false   true  Wednesday
 6920 │  false      3  vehicular   false  false  false   true  Wednesday
 6921 │  false      3  vehicular   false  false  false  false  Wednesday
                                                        6913 rows omitted
…
353
13.3
Preparing data for making predictions
13.3.5 Dropping rows of a data frame that hold missing values
The last step in data preparation for modeling is related to missing values. In listing
13.1, we can see that the type column has 42 missing elements. Assume we want to
remove them from the owensboro2 data frame before the analysis. This can be done
in place by using the dropmissing! function:
julia> dropmissing!(owensboro2)
6879×8 DataFrame
  Row │ arrest  day    type        v1     v2     v3     v4     dayname   
      │ Bool    Int64  String15    Bool   Bool   Bool   Bool   Cat…     
──────┼──────────────────────────────────────────────────────────────────
    1 │   true      4  pedestrian  false  false  false  false  Thursday
    2 │  false      7  vehicular   false   true  false  false  Sunday
    3 │   true      7  vehicular   false  false  false  false  Sunday
    4 │   true      2  vehicular   false  false  false  false  Tuesday
  :   │   :       :        :         :      :      :      :        :
 6876 │  false      3  vehicular   false  false  false   true  Wednesday
 6877 │  false      3  vehicular    true   true  false   true  Wednesday
 6878 │  false      3  vehicular   false  false  false   true  Wednesday
 6879 │  false      3  vehicular   false  false  false  false  Wednesday
                                                        6871 rows omitted
…
 Additionally, we can easily visually confirm that no columns hold missing data. If
you look at listing 13.6, you can see that the element type of column type was
String15?, and now it is String15. The question mark appended to the type signals
that a column allows for missing values. Since it is now gone, this means that after the
dropmissing! operation, our data frame has no missing values.
EXERCISE 13.3
To practice the operations you have learned in this section,
prepare the following two analyses. First, calculate the probability of arrest
per dayname column. Second, compute the probability of arrest again, but
this time, per the dayname and type columns, and present the results in
wide form, where dayname levels are rows and type values form columns.
Before we move forward, let’s drop the day column from owensboro2, as we will not
need it in further analyses:
julia> select!(owensboro2, Not(:day))
6879×7 DataFrame
  Row │ arrest  type        v1     v2     v3     v4     dayname   
      │ Bool    String15    Bool   Bool   Bool   Bool   Cat…      
──────┼───────────────────────────────────────────────────────────
    1 │   true  pedestrian  false  false  false  false  Thursday
    2 │  false  vehicular   false   true  false  false  Sunday
  :   │   :         :         :      :      :      :        :
All element types do not have ? at
their end, which signals that no
columns contain missing data.

354
CHAPTER 13
Advanced transformations of data frames
 6878 │  false  vehicular   false  false  false   true  Wednesday
 6879 │  false  vehicular   false  false  false  false  Wednesday
                                                 6875 rows omitted
…
355
13.4
Building a predictive model of arrest probability
 
julia> train = subset(owensboro2, :train)
4832×8 DataFrame
  Row │ arrest  type        v1     v2     v3     v4     dayname    train 
      │ Bool    String15    Bool   Bool   Bool   Bool   Cat…       Bool  
──────┼──────────────────────────────────────────────────────────────────
    1 │   true  pedestrian  false  false  false  false  Thursday    true
    2 │  false  vehicular   false   true  false  false  Sunday      true
  :   │   :         :         :      :      :      :        :        :
 4831 │  false  vehicular    true   true  false   true  Wednesday   true
 4832 │  false  vehicular   false  false  false   true  Wednesday   true
                                                        4828 rows omitted
julia> test = subset(owensboro2, :train => ByRow(!))
2047×8 DataFrame
  Row │ arrest  type        v1     v2     v3     v4     dayname    train 
      │ Bool    String15    Bool   Bool   Bool   Bool   Cat…       Bool
──────┼──────────────────────────────────────────────────────────────────
    1 │   true  vehicular   false  false  false  false  Tuesday    false
    2 │   true  vehicular   false  false  false  false  Sunday     false
  :   │   :         :         :      :      :      :        :        :
 2046 │  false  vehicular   false  false   true  false  Friday     false
 2047 │  false  vehicular   false  false  false  false  Wednesday  false
                                                        2043 rows omitted
…
in the test data frame, it contains only false values. To perform row subsetting, this
time we use the subset function that creates a new data frame based on passed condi-
tions. As usual, its subset! equivalent operates in place. The subset function
accepts operation specification syntax, just like combine or select. The only differ-
ence is that it requires forms that do not specify a target column name since we are
not creating any columns, but subsetting rows. Also, naturally, the result of the opera-
tion must be Boolean, as we use it as a condition to subset rows.
 As for other functions that accept operation specification syntax, Data-
FramesMeta.jl provides the @subset, @subset!, @rsubset, and @rsubset! conve-
nience macros. Recall that the r prefix means that the passed operation should be
performed by row, and the ! suffix means that we want to update the data frame in
place instead of creating a new data frame. Let’s use the @rsubset macro to create
the test data frame again as an exercise:
julia> @rsubset(owensboro2, !(:train))
2047×8 DataFrame
  Row │ arrest  type        v1     v2     v3     v4     dayname    train 
      │ Bool    String15    Bool   Bool   Bool   Bool   Cat…       Bool  
──────┼──────────────────────────────────────────────────────────────────
    1 │   true  vehicular   false  false  false  false  Tuesday    false
    2 │   true  vehicular   false  false  false  false  Sunday     false
  :   │   :         :         :      :      :      :        :        :
 2046 │  false  vehicular   false  false   true  false  Friday     false
 2047 │  false  vehicular   false  false  false  false  Wednesday  false
                                                        2043 rows omitted
…
